id,trigger,conditions,script,text,options,notes
#displayCosts,OpenInteractionDialog,$id == omnifac score:100,OpenCoreTab OUTPOSTS,,,
autofactoryFlavor,TradePanelFlavorText,"$global.tradePanelMode == MARKET
$id == omnifac score:100", "AddText""Sell weapons/LPCs/ships to analyze, buy to order.""textGrayColor",,,
searchPrep,PopulateOptions,"$id == kazeron
$menuState == main",,,0:search:Search,

