{
    "targetSystem":"corvus", # If invalid a randoms system will be chosen.
    "targetPlanet":"jangala", # If invalid a crash will occur.
    "randomStartingLocation":false, # If false, will orbit Jangala in Corvus
    "randomStartingLocationCivilized":false, # If true, will only spawn in civilized systems. Currently doesn't work.
    "numberOfFactories":1, # Only works if randomStartingLocation is true
    "showAddedCargo":true, # Incredibly spammy, only useful for debug
    "showAnalysisComplete":true, # Notify player when production starts
    "showLimitReached":true, # Notify player when factory is full of a good
    "ignoreGoodRestrictions":false, # If true, factory can replicate anything
    "removeBrokenGoods":true, # If a required mod is removed, remove its goods
    "shipAnalysisTimeMod":0.5, # Double
    "weaponAnalysisTimeMod":0.5, # Double
    "wingAnalysisTimeMod":0.5, # Double
    "shipProductionTimeMod":0.5, # Double
    "weaponProductionTimeMod":0.5, # Double
    "wingProductionTimeMod":0.5, # Double
    "requiredCrewToFunction":0, # Integer
    "requiredSuppliesPerDay":0.0, # Double
    "requiredFuelPerDay":0.0, # Double
    "maxHullsPerFighter":1, # Integer
    "maxHullsPerFrigate":1, # Integer
    "maxHullsPerDestroyer":1, # Integer
    "maxHullsPerCruiser":1, # Integer
    "maxHullsPerCapital":1, # Integer
    "maxStacksPerWeapon":1, # Double
    "maxStacksPerWing":1, # Double
    "tier0Type":"gamma_core", # String
    "tier0Int":1, # Int
    "tier1Type":"gamma_core", # String
    "tier1Int":2, # Int
    "tier2Type":"beta_core", # String
    "tier2Int":1, # Int
    "tier3Type":"alpha_core", # String
    "tier3Int":1, # Int
    "omnifactoryTariff":0.999999, # Double
    "omnifactoryCosts":1, # Double
    "omnifactoryCredits":0 # Double
}